{
  "blog" : {
    "Community_Outreach_Team" : {
      "backgroundColor" : "#3647a5",
      "brief" :"We're looking for Community Outreach Volunteer", 
      "content" : "**Communty Outreach Team @ Kaggle Days Delhi Meetup** **Guidelines:** - Prior engagement with technical communities and have an idea about how communities function over social media channels like twitter/telegram. - Active on social media platform , mailing lists so that they can drive better engagements in community. - Can persuade others by making them understand how Kaggle Days Delhi Meetup can benefit them and their friends/colleagues. **Tasks (On a Weekly Basis):** - Share information about the community in various social media channels of other communities.[We will divide which week is alloted for which community/ies]. - Share information about upcoming meetups/blogs/educational resources on other communities so that each community gets a learning edge.[Content for outreach will be sharedby the content team priority over a common platform] - Join communities if not done yet for outreach. **Monthly Meeting (on Zoom/ Skype):** 2nd Sunday at each month. **Guidelines for Outreach:** - Do remember, we never aim to spam on any social media channel, so a perfect strategy for outreach will be there. - Don't offend the initiatives by other communities or other community members because we will alll learn and explore.",
      "image" : "https://firebasestorage.googleapis.com/v0/b/kdm-delhi-website.appspot.com/o/blog%20image%2Fcommunit-outreach-team.jfif?alt=media&token=cc0429a5-b431-4992-b735-a5d0c70bfcf2",
      "published" : "2019-10-22",
      "source" : "/data/posts/Community-Outreach-Team.md",
      "title" : "Guidelines for Community Outreach Team Volunteers"
    },
    "Community_Project_Team" : {
      "backgroundColor" : "#ffc107",
      "brief" : "We're looking for Community Project Volunteer",
      "content": "**Community Project Team @ Kaggle Days Delhi Meetup** **Guidelines:** - Familiarity with Data Science, Machine Learning and Deep Learning concepts and have a hands on experience in these domains. - Are aware about the recent competitions on Kaggle and advancements in the domains like Computer Vision and Natural Language Processing, so that they can finalize the projects for the community. - Can figure out what skillsets community members are picking for the project, so that people can get to know what they require and can further learn by participating in the project. **Tasks (On a monthly Basis):** - Have discussion with industry experts and keep a tab on advancements over LinkedIn and other professional platforms to get an idea about the type of projects the community can pick. - Design the workflow for the community project with details including the skills required,division of the project into life cycles so that community members can get an overview about the project development. **Monthly Meeting (on Zoom/ Skype):** Continuous meeting with industry experts to focus on the recent developments in these domains and related projects. **Guidelines for the team:** - Finalize a community project or a competition on Kaggle which is intermediate in nature so as to encourage participation of most of the community members. - Lay the structure of the community project with details like Expected Completion Time, Support Required (Hardware / Software) etc.",
      "image" : "https://firebasestorage.googleapis.com/v0/b/kdm-delhi-website.appspot.com/o/blog%20image%2FCommunity%20project.jfif?alt=media&token=b1a77473-ad9d-4f91-8edd-920244df6112",
      "published" : "2019-10-22",
      "source" : "/data/posts/Community-Project-Team.md",
      "title" : "Guidelines for Community Project Team"
    },
    "Content_Development_Team" : {
      "backgroundColor" : "#2196F3",
      "brief" : "We're looking for Content Development Volunteer",
      "content" : "**Content Development Team @ Kaggle Days Delhi Meetup** **Guidelines (For Team Members)** - Previous Experience or familiarity with blogging, technical writing is a huge plus. - Can interview Data Scientists, ML Engineers, Kaggle Experts and turn the interview discussion into a blog. - Can attend the physical meetup once a month & cover the meetup in the form of a blog. - Highly enthusiastic about community engagement & a love for writing, networking and can adhere to the deadlines. **Tasks (on monthly basis)** - Write two blogs each month, first of an Interview with Kaggle Expert/ Data Scientist/ ML Engineer and second, a meetup of the month coverage. - Search for atleast 5 useful blogs/tutorials to be posted on the website. - Write 3-4 lines for promotional material of the community on social media channels via Twitter, Telegram. **Monthly Meeting (on Zoom/Skype)** To be conducted on Zoom/Skype every 2nd Saturday of each month. **Guidelines for Team** - Each blog should be atleast 600 words long with proper ending & opening notes.",
      "image" : "https://firebasestorage.googleapis.com/v0/b/kdm-delhi-website.appspot.com/o/blog%20image%2FContent%20Development.jfif?alt=media&token=5a5e07eb-8a09-4a86-b947-306af37357b2",
      "published" : "2019-10-22",
      "source" : "/data/posts/Content-Development-Team.md",
      "title" : "Guidelines for Content Development Team"
    },
    "Creativity_Team" : {
      "backgroundColor" : "#5a7785",
      "brief" : "We're looking for Creative Volunteer",
      "content" : "**Creativity Team @ Kaggle Days Delhi Meetup** **Guidelines:** - Experience with Adobe Illustrator/ After Effects/ Photoshop and previous experience with readymade tools like Canva. - Previous experience in collaborating to design Style Guides &amp;Wireframes for websites and other constructive initiatives. - Highly enthusiastic about community engagement and a love for designing, networking and can adhere to the deadlines. **Tasks (On a monthly Basis):** - Design ¾ posters for- 1.About upcoming Meetup [with Venue, speaker names, Sponsors, Date]. 2.Interview Blog [with Guest Image, Name, Details]. 3.Meetup Monthly Blog [with meetup details and any image from meetup]. 4.Volunteering Opportunities [with skills we are looking for], one-time task. - Help design the style guides, wireframes with proper vectors, logos and other necessary requirements. **Monthly Meeting (on Zoom/ Skype):** 1st Saturday of each month. **Guidelines for Designing:** - Ensure that all your creations are original and are not copied from already existing creatives etc. - Posters should be compulsorily delivered after a week of being asked to design the same. - All your creatives etc. should be kept in a common control directory for access of the whole team.",
      "image" : "https://firebasestorage.googleapis.com/v0/b/kdm-delhi-website.appspot.com/o/blog%20image%2FDesign.jfif?alt=media&token=5624c1e2-1853-4a7a-a3a0-f5ab7c0aeb2f",
      "published" : "2019-10-22",
      "source" : "/data/posts/Creativity-Team.md",
      "title" : "Guidelines for Creativity Team"
    },
    "Logistics_Onsite" : {
      "backgroundColor" : "#009688",
      "brief" : "We're looking for Logistics Volunteer",
      "content" : "**Onsite Logistics Team @ Kaggle Days Delhi Meetup** **Guidelines (For Team Members)** - Have volunteered for successful conduct of meetup events, college fests because handling onsite circumstances is a huge requirement for conducting meetups. - Can help the team to click pictures, take videos of the attendees and the speaker while meetup is going on. - Can help the team to check in the attendees, distribute lunch, and make single drive links for images and videos. - Have a knack to handle people and make them attend events in the best manner. **Tasks (on monthly basis)** - Helping the attendees to check in on the day of the meetup. - Collecting and distributing lunch (if there) amongst the attendees. - Clicking pictures, videos of the meetup. Help screen – record the talk and the speck of the speaker while presenting. - Compile the speech recording and audio recording of the talk (if possible). **Monthly Meeting (on Zoom/Skype)** 1 day before the meetup **Guidelines for Team** - Reach the venue of the meetup at least 1 hour before the meetup starts and make sure the attendees are checked in properly and all setup like projector, mic are working well. - Make sure the lunch is distributed smoothly. - Before leaving the venue, remind attendees to make their space clear and chairs arranged.",
      "image" : "https://firebasestorage.googleapis.com/v0/b/kdm-delhi-website.appspot.com/o/blog%20image%2FLogistics%20onsite.jfif?alt=media&token=bc7e872b-0b2a-4215-a98e-35a2d4baf2c9",
      "published" : "2019-10-22",
      "source" : "/data/posts/Logistics_Onsite.md",
      "title" : "Guidelines for Onsite Logistics Team"
    },
    "Social_Media_Team" : {
      "backgroundColor" : "#2196F3",
      "brief" : "We're looking for Social Media Volunteer",
      "content" : "**Social Media Team @ Kaggle Days Meetup Delhi** Social Media Platform to target - Twitter , Facebook , Instagram , Linkedin **Guidelines:** - Experience in setting up teams/profiles on social media platforms like Twitter etc for college fests,other events is a huge plus. - Have an idea about social media behaviour of the potential community members ( like tech communities tend to post updates not in early morning etc) - Knowledge about SEO , Keywords for better usage of social media profiles and can drive organic audience. **Tasks (On a monthly Basis):** - Setting up of social media profiles on the mentioned platforms[ one time task]. - Researching about keywords, trending content on the specific social media platforms so that better community outreach can be done. - Posting updates on our respective Kaggle Days Delhi Social Media profiles ( In collaboration with Community Outreach Team). **Monthly Meeting (on Zoom/ Skype):** 2nd Saturday of each month. **Guidelines for the team:** - Collaborate with your team members to get an idea about when to post and where to post accordingly. - Don’t try to put up multiple posts on the profiles. - Collaborate with community outreach team for better promotion.",
      "image" : "https://firebasestorage.googleapis.com/v0/b/kdm-delhi-website.appspot.com/o/blog%20image%2Fsocail%20media.png?alt=media&token=0367e737-cab2-44a4-a75a-d298deb97ff1",
      "published" : "2019-10-22",
      "source" : "/data/posts/Social-Media-Team.md",
      "title" : "Guidelines for Social Media Team"
    },
    "Sponsorship_Team" : {
      "backgroundColor" : "#5a7785",
      "brief" : "We're looking for Sponsorship Volunteer", "content" : "**Partnership and Sponsorship Team @ Kaggle Days Delhi Meetup** **Guidelines:** - Prior experience in communicating with organizations for sponsorships at college fests,events etc is a big plus. - Familiarity with core members of other communities so that we can look into community partnerships for grand events. - Have connections at potential sponsoring organizations for smooth talks regarding sponsorship. - Highly enthusiastic about collaboration of community and corporates, startups etc and can adhere to deadlines. **Tasks (On a monthly basis):** - Approach 5-6 sponsors each month regarding sponsorship of food, venue, in-cash,goodies; so that we can get sponsors for our upcoming meetups. - Collect the point of contact details for the organizations and connect with them if you know personally or share the details with the organizer to contact them through official mode of communication. - Help design the sponsorship prospectus for venue, food, in-cash, goodies; so that we can present our point in a better way. (One time task) **Monthly Meeting (On Zoom/Skype):** First Saturday of each month, at night. **Guidelines for team:** - Collaborate with the team members to keep a check on who we have already contacted and who is required to be contacted. - Look for the sponsors in the meetups of other communities and make a list to find their contact details.",
      "image" : "https://firebasestorage.googleapis.com/v0/b/kdm-delhi-website.appspot.com/o/blog%20image%2Fsponsor.png?alt=media&token=df0b37da-da07-4ee9-a8e9-f7b07db612cb",
      "published" : "2019-10-22",
      "source" : "/data/posts/Sponsorship-Team.md",
      "title" : "Guidelines for Sponsorship Team"
    },
    "Talk_Review_Team" : {
      "backgroundColor" : "#009688",
      "brief" : "We're looking for Talk Review Volunteer",
      "content" : "**Speaker Talk Review Team @ Kaggle Days Delhi Meetup** **Guidelines:** - Have attended community meetups earlier and are familiar with the usual structure of technical talks. - Can provide constructive suggestions to enhance talk slides and help speaker with the same. - Highly enthusiastic about community building and reviewing talks, structure, to help the speaker deliver the talk in the best possible way. Adhering to deadlines for talk reviewing is a must. **Tasks (On a Monthly Basis):** - Review the talk and check the structure of the talk whether content of the talk depicts what the title suggests - Help the speaker with suggestion to better the talk and make sure if there is any hands-on session; the code for the same is on colab or github - Once the talk is finalized, convert the talk into PDF  and send the organizer for uploading in central talk repository. Also share colab/ github link if any **Monthly Meeting (on Zoom/ Skype):** 3rd Sunday at each month. **Guidelines for Outreach:** - Understanding the topic of presentation before reviewing. - Don’t be rude with the speaker, help them to make the slides and code better. - Make sure the slides of the talk are finalized 2-3 days prior to the meetup.",
      "image" : "https://firebasestorage.googleapis.com/v0/b/kdm-delhi-website.appspot.com/o/blog%20image%2FReview.jfif?alt=media&token=0e45f6ff-d7be-424f-93b4-a338f03fefa5",
      "published" : "2019-10-22",
      "source" : "/data/posts/Talk-Review-Team.md",
      "title" : "Guidelines for Talks Review Team"
    }
  },
  "gallery" : [
    "https://firebasestorage.googleapis.com/v0/b/kdm-delhi-website.appspot.com/o/gallery%20image%2F1.JPG?alt=media&token=83828465-c8cf-48e4-b3c9-5e7a2c3917c0",
    "https://firebasestorage.googleapis.com/v0/b/kdm-delhi-website.appspot.com/o/gallery%20image%2F2.JPG?alt=media&token=0d377535-af7e-47e5-888a-a26b1b8603e8",
    "https://firebasestorage.googleapis.com/v0/b/kdm-delhi-website.appspot.com/o/gallery%20image%2F3.JPG?alt=media&token=d9e747bc-471c-478c-b6c1-4e87e6f9bcfc",
    "https://firebasestorage.googleapis.com/v0/b/kdm-delhi-website.appspot.com/o/gallery%20image%2F4.JPG?alt=media&token=fe383089-cc5f-48b8-a028-1e9f507ee3b4",
    "https://firebasestorage.googleapis.com/v0/b/kdm-delhi-website.appspot.com/o/gallery%20image%2F5.JPG?alt=media&token=9ce23a87-89a3-41fb-b914-5ab72e7457bf",
    "https://firebasestorage.googleapis.com/v0/b/kdm-delhi-website.appspot.com/o/gallery%20image%2F6.jpg?alt=media&token=68fcbfe1-f01b-4173-b93b-0f77eda3c735",
    "https://firebasestorage.googleapis.com/v0/b/kdm-delhi-website.appspot.com/o/gallery%20image%2F7.jpg?alt=media&token=cef2a685-b8b9-4da3-9a18-b14e07ac7670",
    "https://firebasestorage.googleapis.com/v0/b/kdm-delhi-website.appspot.com/o/gallery%20image%2F8.jpg?alt=media&token=5c6173c4-f7cd-425c-b243-6052e0f97554"
  ],
  "notifications" : {
    "config" : {
      "icon" : "",
      "timezone" : "+5:30"
    },
    "messages" : { },
    "subscribers" : { },
    "test" : { },
    "users" : { }
  },
  "partners" : [ {
    "logos" : [ {
      "order" : 0,
      "logoUrl" : "https://firebasestorage.googleapis.com/v0/b/kdm-delhi-website.appspot.com/o/sponsor%20image%2Fkaggle.png?alt=media&token=c6c996eb-2e5f-46e4-81ae-87813583e729",
      "name" : "Kaggle",
      "url" : "https://www.kaggle.com/"
    },
      {
      "order" : 1,
      "logoUrl" : "https://firebasestorage.googleapis.com/v0/b/kdm-delhi-website.appspot.com/o/sponsor%20image%2Flogicai.png?alt=media&token=0138d39e-e814-44d7-8b3c-b60e090ae33e",
      "name" : "LogicAi",
      "url" : "https://logicai.io/"
    }],
    "order" : 0,
    "title" : "Core Sponsors"
  }, {
    "logos" : [ {
      "order" : 0,
      "logoUrl" : "https://firebasestorage.googleapis.com/v0/b/kdm-delhi-website.appspot.com/o/sponsor%20image%2Fgoogle.jpg?alt=media&token=aaa1650b-ba07-48e9-b20e-43a4744b3ec1",
      "name" : "Google",
      "url" : "https://google.com/"
    }, {
      "order" : 1,
      "logoUrl" : "https://firebasestorage.googleapis.com/v0/b/kdm-delhi-website.appspot.com/o/sponsor%20image%2Fgrofers.png?alt=media&token=7310f6e7-882f-4b7e-9343-0447abf9ace5",
      "name" : "Grofers",
      "url" : "https://grofers.com"
    }, {
      "order" : 2,
      "logoUrl" : "https://firebasestorage.googleapis.com/v0/b/kdm-delhi-website.appspot.com/o/sponsor%20image%2Fcodingninjas.svg?alt=media&token=1ede0877-9d2b-47c7-a55e-7ee20cae57f6",
      "name" : "Coding Ninjas",
      "url" : "https://codingninjas.in/"
    }, {
      "order" : 3,
      "logoUrl" : "https://firebasestorage.googleapis.com/v0/b/kdm-delhi-website.appspot.com/o/sponsor%20image%2Ftokopedia.png?alt=media&token=dda667fe-964f-463a-b25a-4b0294c41543",
      "name" : "Tokopedia",
      "url" : "http://tokopedia.com/"
    }, {
      "order" : 4,
      "logoUrl" : "https://firebasestorage.googleapis.com/v0/b/kdm-delhi-website.appspot.com/o/sponsor%20image%2Fatlan.svg?alt=media&token=dec211c2-daf7-4d3a-aa58-406815c0b663",
      "name" : "Atlan",
      "url" : "https://atlan.com/"
    }, {
      "order" : 5,
      "logoUrl" : "https://firebasestorage.googleapis.com/v0/b/kdm-delhi-website.appspot.com/o/sponsor%20image%2Fbitgrit.jpg?alt=media&token=22f06306-17a3-4b65-9ae0-d2e2b7182c98",
      "name" : "Bitgrit",
      "url" : "https://bitgrit.net/"
    }, {
      "order" : 6,
      "logoUrl" : "https://firebasestorage.googleapis.com/v0/b/kdm-delhi-website.appspot.com/o/sponsor%20image%2Finternshala.svg?alt=media&token=32d8f10d-e877-488f-bd3c-02519b688ffe",
      "name" : "Internshala",
      "url" : "https://internshala.com/"
    }, {
      "order" : 7,
      "logoUrl" : "https://firebasestorage.googleapis.com/v0/b/kdm-delhi-website.appspot.com/o/sponsor%20image%2Finnovaccer.svg?alt=media&token=9e69bbe8-0ad8-4a41-a18a-00b402df8a25",
      "name" : "Innovacer",
      "url" : "https://innovaccer.com/"
    }],
    "order" : 1,
    "title" : "Our Prime Sponsors"
  } ],
  "schedule" : {
    "2019-11-09" : {
      "dateReadable" : "November 9",
      "timeslots" : [ {
        "endTime" : "11:00",
        "sessions" : [ {
          "items" : [ 101 ]
        } ],
        "startTime" : "10:45"
      }, 
       {
        "endTime" : "12:00",
        "sessions" : [ {
          "items" : [ 102 ]
        }],
        "startTime" : "11:00"
      }, {
        "endTime" : "12:15",
        "sessions" : [ {
          "items" : [ 103 ]
        } ],
        "startTime" : "12:00"
      },
      {
        "endTime" : "13:00",
        "sessions" : [ {
          "items" : [ 104 ]
        } ],
        "startTime" : "12:15"
      },
      {
        "endTime" : "13:15",
        "sessions" : [ {
          "items" : [ 103 ]
        } ],
        "startTime" : "13:00"
      },
      {
        "endTime" : "14:00",
        "sessions" : [ {
          "items" : [ 105 ]
        } ],
        "startTime" : "13:15"
      },
      {
        "endTime" : "16:00",
        "sessions" : [ {
          "items" : [ 106 ]
        }],
        "startTime" : "14:00"
      },
      {
        "endTime" : "17:00",
        "sessions" : [ {
          "items" : [ 107 ]
        } ],
        "startTime" : "16:00"
      } ],
      "tracks" : [ {
        "title" : "Expo hall"
      }, {
        "title" : "Conference hall"
      }, {
        "title" : "Workshops hall"
      } ]
    }
    },
  "sessions" : {
    "101" : {
      "complexity" : "Welcome to Kaggle Days Meetup",
      "description" : "Attendee Check-In",
      "language" : "English",
      "presentation" : "https://kaggledays.com/meetups/",
      "speakers" : [ "Ayon Roy" ],
      "tags" : [ "Welcome" ],
      "title" : "Check-In of Attendees "
    },
    "102" : {
      "complexity" : "Beginner",
      "description" : "In this session, we will take a look about approaching a Kaggle problem.",
      "language" : "English",
      "speakers" : [ "Yatin_Bhatia" ],
      "tags" : [ "Kaggle", "Competitions" ],
      "title" : "How to approach a Kaggle Competition"
    },
    "103" : {
      "complexity" : "Clear your Doubt",
      "description" : "It's time to clear your doubts",
      "language" : "English",
      "tags" : [ "Doubt" ],
      "title" : "Doubt Clearing Session"
    },
    "104" : {
      "complexity" : "Beginner",
      "description" : "Talk 2",
      "language" : "English",
      "speakers" : [ "yatin_bhatia" ],
      "tags" : [ "Kaggle", "Competitions" ],
      "title" : "The Physical Web: Context is King!",
      "videoId" : "fLfQNp75kbc"
    },
    "105" : {
      "description" : "Time For Lunch",
      "language" : "English",
      "title" : "Lunch & Networking"
    },
    "106":{
      "description" : "Community Project Discussion",
      "language" : "English",
      "tags" : [ "Community Project" ],
      "title" : "Project of Community KDM Delhi NCR"
    },
    "107" : {
      "description" : "Volunteering Team Meeting",
      "language" : "English",
      "title" : "Meeting for the volunteers"
    }
  },
  "speakers" : {
    "yatin_bhatia" : {
      "bio" : "Currently working with RxLogix. Previously worked with ZS Associates",
      "featured" : true,
      "name" : "Yatin Bhatia",
      "photoUrl" : "https://firebasestorage.googleapis.com/v0/b/kdm-delhi-website.appspot.com/o/speaker%20image%2Fyatin.jpg?alt=media&token=55bc6778-c3bd-4f4c-818c-7376e450e882",
      "pronouns": "he/him",
      "shortBio" : "Currently working with RxLogix. Previously.... ",
        "socials" : [ {
        "icon" : "linkedin",
        "link" : "https://www.linkedin.com/in/yatin-bhatia-241a996/",
        "name" : "LinkedIn"
      }],
      "order" : 0,
      "title" : "Data Scientist @ RxLogix"
    },
    "siddhanth_yadav" : {
      "bio" : "Kaggle Kernel Master | Final Year Student @ NCU ",
      "featured" : true,
      "name" : "Siddharth Yadav",
      "photoUrl" : "https://firebasestorage.googleapis.com/v0/b/kdm-delhi-website.appspot.com/o/speaker%20image%2Fsiddharth.jpg?alt=media&token=7fb661dc-cb64-41d1-a74b-5450ba1748a1",
      "pronouns": "he/him",
      "shortBio" : "Kaggle Kernel Master...",
      "socials" : [ {
        "icon" : "twitter",
        "link" : "https://twitter.com/pelotasplus",
        "name" : "Twitter"
      }, {
        "icon" : "facebook",
        "link" : "http://facebook.com/pelotasplus",
        "name" : "Facebook"
      }],
      "order" : 1,
      "title" : "Kaggle Kernel Master"
    },
    "adish_jain" : {
      "bio" : "Kaggle Competition Expert | Data Scientist @ Nagarro | IIT Guwahati Graduate",
      "featured" : true,
      "name" : "Adish Jain",
      "photoUrl" : "https://firebasestorage.googleapis.com/v0/b/kdm-delhi-website.appspot.com/o/speaker%20image%2Fadish.jpg?alt=media&token=b450f354-fc09-4852-b9bc-60291d6f20b3",
      "shortBio" : "Kaggle Competition Expert | Data Scientist @ Nagarro | IIT Guwahati Graduate",
      "socials" : [ {
        "icon" : "facebook",
        "link" : "https://www.facebook.com/anton.minashkin.1",
        "name" : "Facebook"
      }, {
        "icon" : "twitter",
        "link" : "https://twitter.com/AntonMinashkin",
        "name" : "Twitter"
      } ],
      "order" : 2,
      "title" : "Kaggle Competition Expert"
    },
    "mayank_jha" : {
      "bio" : "Kaggle Expert | Data Scientist @ Srijan Technologies",
      "featured" : false,
      "name" : "Mayank Kumar Jha",
      "photoUrl" : "https://firebasestorage.googleapis.com/v0/b/kdm-delhi-website.appspot.com/o/speaker%20image%2Fmayank.jpg?alt=media&token=ea4909af-1414-441b-ba39-d32128c6b944",
      "shortBio" : "Kaggle Expert",
      "socials" : [ {
        "icon" : "twitter",
        "link" : "https://twitter.com/CarmenPopoviciu",
        "name" : "Twitter"
      } ],
      "order" : 3,
      "title" : "Kaggle Expert"
    },
    "ishaan_jain" : {
      "bio" : "Kaggle Discussion Expert  | ML Developer @ Apeejay Stya Group",
     "featured" : true,
      "name" : "Ishaan Jain",
     "photoUrl" : "https://firebasestorage.googleapis.com/v0/b/kdm-delhi-website.appspot.com/o/speaker%20image%2Fishaan.jpg?alt=media&token=bbded075-8845-4ebd-be84-b88147e67dd9",
      "shortBio" : "Kaggle Discussion Expert",
      "socials" : [ ],
      "order" : 4,
      "title" : "Kaggle Discussion Expert"
    }
  },
  "team" : [ {
    "members" : [ {
      "name" : "Ayon Roy",
      "photoUrl" : "https://firebasestorage.googleapis.com/v0/b/kdm-delhi-website.appspot.com/o/team%20image%2Fayon.png?alt=media&token=c3dc2ad7-c863-47e1-a4da-896a3712a570",
      "socials" : [ {
        "icon" : "website",
        "link" : "https://ayonroy.ml",
        "name" : "Website"
      }, {
        "icon" : "github",
        "link" : "https://github.com/ayonroy2000",
        "name" : "Github"
      }, {
        "icon" : "linkedin",
        "link" : "https://www.linkedin.com/in/ayonroy2000/",
        "name" : "LinkedIn"
      } ],
      "order" : 0,
      "title" : "Organizer"
    } ],
    "title" : "Core Team"
  }, {
    "members" : [ {
      "name" : "Priyanshu Krishnan",
      "photoUrl" : "",
      "socials" : [ {
        "icon" : "facebook",
        "link" : "",
        "name" : "Facebook"
      }, {
        "icon" : "twitter",
        "link" : "",
        "name" : "Twitter"
      } ],
      "order" : 0,
      "title" : "Website Development"
    }],
    "title" : "Volunteer"
  } ],
  "tickets" : [ {
    "available" : true,
    "currency" : "Rs.",
    "ends" : "Nov 8 ",
    "info" : "Requires valid student/lecturer ID",
    "name" : "Kaggle Days Meetup Ticket Free",
    "price" : 0,
    "soldOut" : false,
    "starts" : "Oct 26",
    "url" : "https://www.eventbrite.com/o/kaggle-days-meetup-delhi-ncr-21625166901"
  } ],
  "triggers" : {
    "images" : false
  },
  "videos" :{

  },
  "previousSpeakers": {
    "akarsh_raj" : {
      "bio" : "Data Scientist at ZS | Kaggle Expert | Data Science Mentor | Speaker at DS Forums",
      "id" : "akarsh_raj",
      "name" : "Akarsh Raj",
      "order" : 7,
      "photoUrl" : "https://firebasestorage.googleapis.com/v0/b/kdm-delhi-website.appspot.com/o/speaker%20image%2Fakarsh.jpg?alt=media&token=af4b16f9-e7ef-4042-884d-c5ac635ff875",
      "sessions" : {
        "15 June 2019" : [ {
          "presentation" : "https://drive.google.com/file/d/1Q-3DqXS1bOs45dzSWCRmX8QIXlgviyK4/view?usp=sharing",
          "tags" : [ "Beginner","Kaggle"],
          "title" : "Introduction To Kaggle & Kaggle Competitions"
        } ]
      },
      "socials" : [ {
        "icon" : "linkedin",
        "link" : "https://www.linkedin.com/in/akarshrajsingh/",
        "name" : "Linkedin"
      } ],
      "title" : "Data Scientist at ZS Associates"
    }
  }
}
